%YAML 1.1
%TAG !u! tag:unity3d.com,2011:
--- !u!1045 &1
EditorBuildSettings:
  m_ObjectHideFlags: 0
  serializedVersion: 2
  m_Scenes:
  - enabled: 1
    path: Assets/Scenes/Splash.unity
    guid: 505af578fee5bf3499d67f8ced5b8c5c
  - enabled: 1
    path: Assets/Scenes/Main Menu.unity
    guid: 0934db89a7f03e84ab81707fffcd1b7d
  - enabled: 1
    path: Assets/Scenes/Shop.unity
    guid: b4b4715d96e258a409c0048f9e12b436
  - enabled: 1
    path: Assets/Scenes/Level.unity
    guid: 2cda990e2423bbf4892e6590ba056729
  m_configObjects: {}
